…
스코어보드 자료를 가져옵니댜. 이번에는 `parquet`형식으로 만들 파일을 가져오겠습니다. 이 형식은 자료를 기본적으로 압축하기 때문에 사용하기가 편리합니다.

```R
url <- "https://raw.githubusercontent.com/LOPES-HUFS/Data_Wrangling_for_KBO/master/sample/scoreboard.parquet"
download.file(url = url, destfile = "scoreboard.parquet")
scoreboard <- read_parquet("scoreboard.parquet")
```

현재 `scoreboard`에는 날짜가 복잡하게 다음과 같이 들어 있습니다.

```R
> scoreboard %>%
+ select(year, month, day)
# A tibble: 13,614 x 3
    year month   day
   <int> <int> <int>
 1  2010     3    27
 2  2010     3    27
 3  2010     3    27
 4  2010     3    27
 5  2010     3    27
 6  2010     3    27
 7  2010     3    27
 8  2010     3    27
 9  2010     3    28
10  2010     3    28
# … with 13,604 more rows

```

이를 쉽게 사용하는 방법은 다음과 같습니다. `lubridate` 패키지의 `make_date()`로 시계열 날짜를 만들 수 있습니다. 만약 시분초까지 추가하고 싶다면 `make_datetime()`을 대신 사용하면 됩니다. 현재 자료에는 그런 것이 없기 때문에 아래와 같이 사용하면 됩니다.

```R
> scoreboard %>%
+ select(year, month, day) %>%
+ mutate(date = make_date(year, month, day))
# A tibble: 13,614 x 4
    year month   day date
   <int> <int> <int> <date>
 1  2010     3    27 2010-03-27
 2  2010     3    27 2010-03-27
 3  2010     3    27 2010-03-27
 4  2010     3    27 2010-03-27
 5  2010     3    27 2010-03-27
 6  2010     3    27 2010-03-27
 7  2010     3    27 2010-03-27
 8  2010     3    27 2010-03-27
 9  2010     3    28 2010-03-28
10  2010     3    28 2010-03-28
# … with 13,604 more rows
```

현재 입력된 자료에는 팀명이 다음과 같이 문자열로 들어 습니다.

```R
> scoreboard %>%
+ select(팀, 홈팀, 원정팀)
# A tibble: 13,614 x 3
   팀    홈팀  원정팀
   <chr> <chr> <chr>
 1 기아  기아  두산  
 2 두산  기아  두산  
 3 한화  한화  SK
 4 SK    한화  SK
 5 LG    LG    삼성  
 6 삼성  LG    삼성  
 7 키움  키움  롯데  
 8 롯데  키움  롯데  
 9 한화  한화  SK
10 SK    한화  SK
# … with 13,604 more rows
```
…
홈팀이 두산팀만 뽑고 싶다면,

```R
scoreboard_win %>%
    filter(team == "두산")
```

결과는 다음과 같습니다.

```R
> scoreboard_win %>%
+     filter(team == "두산")
# A tibble: 1,468 x 4
   date       team  home_team win  
   <date>     <fct> <lgl>     <fct>
 1 2010-03-27 두산  FALSE     승
 2 2010-03-28 두산  FALSE     승
 3 2010-03-30 두산  TRUE      승
 4 2010-04-02 두산  TRUE      승
 5 2010-04-03 두산  TRUE      패
 6 2010-04-04 두산  TRUE      승
 7 2010-04-06 두산  FALSE     승
 8 2010-04-07 두산  FALSE     승
 9 2010-04-08 두산  FALSE     승
10 2010-04-09 두산  FALSE     무
# … with 1,458 more rows
```
…
결과는 다음과 같습니다.

```R
> scoreboard_win %>%
+     filter(team == "두산") %>%
+     select(date, win) %>%
+     mutate(year = factor(year(date))) %>%
+     group_by(year) %>%
+     count(win)
# A tibble: 31 x 3
# Groups:   year [11]
   year  win       n
   <fct> <fct> <int>
 1 2010  무        3
 2 2010  승       73
 3 2010  패       57
 4 2011  무        2
 5 2011  승       61
 6 2011  패       70
 7 2012  무        3
 8 2012  승       68
 9 2012  패       62
10 2013  무        3
# … with 21 more rows
```
…
url <- "https://raw.githubusercontent.com/LOPES-HUFS/Data_Wrangling_for_KBO/master/sample/pitcher.parquet"
download.file(url = url, destfile = "pitcher.parquet")
pitcher <- read_parquet("pitcher.parquet")
```

### 야수 데이터 살펴보기

투수를 제외한 선수 자료인 `batter`을 살펴보도록 하겠습니다. 이 자료는 앞에서 스코어 자료와 마찬가지로 날짜가 복잡하게 들어있기 때문에 아래와 같이 방법으로 변경해서 사용할 것입니다.

```R
> batter %>%
+ select(year, month, day) %>%
+ mutate(date = make_date(year, month, day))
# A tibble: 173,000 x 4
    year month   day date
   <int> <int> <int> <date>
 1  2010     3    27 2010-03-27
 2  2010     3    27 2010-03-27
 3  2010     3    27 2010-03-27
 4  2010     3    27 2010-03-27
 5  2010     3    27 2010-03-27
 6  2010     3    27 2010-03-27
 7  2010     3    27 2010-03-27
 8  2010     3    27 2010-03-27
 9  2010     3    27 2010-03-27
10  2010     3    27 2010-03-27
# … with 172,990 more rows
```
…
